{
    "compilerOptions": {
        "baseUrl": ".",
        "paths": {
            "@components/*": [
                "components/*"
            ],
            "@pages/*": [
                "pages/*"
            ],
            "@functions/*": [
                "functions/*"
            ],
            "@data/*": [
                "data/*"
            ],
            "@store/*": [
                "store/*"
            ]
        }
    }
}